…
    ## The following objects are masked from 'package:base':
    ## 
    ##     intersect, setdiff, setequal, union

``` r
library(nycflights13)
library(ggplot2)

flights
```

    ## # A tibble: 336,776 x 19
    ##     year month   day dep_time sched_dep_time dep_delay arr_time sched_arr_time
    ##    <int> <int> <int>    <int>          <int>     <dbl>    <int>          <int>
    ##  1  2013     1     1      517            515         2      830            819
    ##  2  2013     1     1      533            529         4      850            830
    ##  3  2013     1     1      542            540         2      923            850
    ##  4  2013     1     1      544            545        -1     1004           1022
    ##  5  2013     1     1      554            600        -6      812            837
    ##  6  2013     1     1      554            558        -4      740            728
    ##  7  2013     1     1      555            600        -5      913            854
    ##  8  2013     1     1      557            600        -3      709            723
    ##  9  2013     1     1      557            600        -3      838            846
    ## 10  2013     1     1      558            600        -2      753            745
    ## # ... with 336,766 more rows, and 11 more variables: arr_delay <dbl>,
    ## #   carrier <chr>, flight <int>, tailnum <chr>, origin <chr>, dest <chr>,
    ## #   air_time <dbl>, distance <dbl>, hour <dbl>, minute <dbl>, time_hour <dttm>

``` r
?flights
```

    ## starting httpd help server ...

    ##  done

``` r
flights[,5:10]
```

    ## # A tibble: 336,776 x 6
    ##    sched_dep_time dep_delay arr_time sched_arr_time arr_delay carrier
    ##             <int>     <dbl>    <int>          <int>     <dbl> <chr>  
    ##  1            515         2      830            819        11 UA     
    ##  2            529         4      850            830        20 UA     
    ##  3            540         2      923            850        33 AA     
    ##  4            545        -1     1004           1022       -18 B6     
    ##  5            600        -6      812            837       -25 DL     
    ##  6            558        -4      740            728        12 UA     
    ##  7            600        -5      913            854        19 B6     
    ##  8            600        -3      709            723       -14 EV     
    ##  9            600        -3      838            846        -8 B6     
    ## 10            600        -2      753            745         8 AA     
    ## # ... with 336,766 more rows
…
